# Fdb version 3
["pdflatex"] 1638844229 "c:/Users/luk3w/OneDrive/ACME/aircraft-stability-team/vol4_project/solutions_section/solutions_section.tex" "solutions_section.pdf" "solutions_section" 1638844229
  "C:/Users/luk3w/AppData/Local/MiKTeX/miktex/data/le/pdftex/pdflatex.fmt" 1635743426 9715384 32bb4af084287f49f1728bdfeac9ffa6 ""
  "C:/Users/luk3w/AppData/Local/Programs/MiKTeX/fonts/tfm/public/cm/cmr10.tfm" 1136765053 1296 45809c5a464d5f32c8f98ba97c1bb47f ""
  "C:/Users/luk3w/AppData/Local/Programs/MiKTeX/tex/generic/iftex/iftex.sty" 1583523400 6501 4011d89d9621e0b0901138815ba5ff29 ""
  "C:/Users/luk3w/AppData/Local/Programs/MiKTeX/tex/generic/infwarerr/infwarerr.sty" 1575399508 8356 7bbb2c2373aa810be568c29e333da8ed ""
  "C:/Users/luk3w/AppData/Local/Programs/MiKTeX/tex/generic/kvdefinekeys/kvdefinekeys.sty" 1576763304 5412 d5a2436094cd7be85769db90f29250a6 ""
  "C:/Users/luk3w/AppData/Local/Programs/MiKTeX/tex/generic/kvsetkeys/kvsetkeys.sty" 1576433820 13807 952b0226d4efca026f0e19dd266dcc22 ""
  "C:/Users/luk3w/AppData/Local/Programs/MiKTeX/tex/generic/ltxcmds/ltxcmds.sty" 1601732009 18568 4409f8f50cd365c68e684407e5350b1b ""
  "C:/Users/luk3w/AppData/Local/Programs/MiKTeX/tex/generic/pdfescape/pdfescape.sty" 1575926700 19007 15924f7228aca6c6d184b115f4baa231 ""
  "C:/Users/luk3w/AppData/Local/Programs/MiKTeX/tex/generic/pdftexcmds/pdftexcmds.sty" 1623001677 20089 80423eac55aa175305d35b49e04fe23b ""
  "C:/Users/luk3w/AppData/Local/Programs/MiKTeX/tex/latex/base/article.cls" 1623738100 20144 0fe9067680219956678b52f12bdce8ee ""
  "C:/Users/luk3w/AppData/Local/Programs/MiKTeX/tex/latex/base/inputenc.sty" 1623738100 5049 969aec05d5f39c43f8005910498fcf90 ""
  "C:/Users/luk3w/AppData/Local/Programs/MiKTeX/tex/latex/base/size11.clo" 1623738100 8464 efc3cbec9b4f1a5665635866ad7e7dba ""
  "C:/Users/luk3w/AppData/Local/Programs/MiKTeX/tex/latex/graphics/keyval.sty" 1622999725 2671 4de6781a30211fe0ea4c672e4a2a8166 ""
  "C:/Users/luk3w/AppData/Local/Programs/MiKTeX/tex/latex/hyperref/hyperref.sty" 1623054242 230915 97a8817f13de4e61bbc3592cb2caa995 ""
  "C:/Users/luk3w/AppData/Local/Programs/MiKTeX/tex/latex/url/url.sty" 1388490452 12796 8edb7d69a20b857904dd0ea757c14ec9 ""
  "c:/Users/luk3w/OneDrive/ACME/aircraft-stability-team/vol4_project/solutions_section/solutions_section.tex" 1638844166 735 19c6d19f2c12d768e367a90d5882c10c ""
  "hycolor.sty" 0 -1 0 ""
  "solutions_section.aux" 1638844229 34 3985256e7290058c681f74d7a3565a19 ""
  "solutions_section.tex" 1638844166 735 19c6d19f2c12d768e367a90d5882c10c ""
  (generated)
  "solutions_section.log"
  "solutions_section.pdf"
