\relax 
\@writefile{toc}{\contentsline {section}{\numberline {1}Introduction}{1}{}\protected@file@percent }
\@writefile{toc}{\contentsline {subsection}{\numberline {1.1}Phenomenon}{1}{}\protected@file@percent }
\@writefile{toc}{\contentsline {subsection}{\numberline {1.2}Equations}{1}{}\protected@file@percent }
\@writefile{toc}{\contentsline {subsubsection}{\numberline {1.2.1}Force of Parasitic Drag}{2}{}\protected@file@percent }
\@writefile{toc}{\contentsline {subsubsection}{\numberline {1.2.2}Force of Induced Drag}{2}{}\protected@file@percent }
\@writefile{toc}{\contentsline {subsubsection}{\numberline {1.2.3}Force of Primary Lift}{2}{}\protected@file@percent }
\@writefile{toc}{\contentsline {subsubsection}{\numberline {1.2.4}Force of Secondary Lift}{2}{}\protected@file@percent }
\@writefile{toc}{\contentsline {subsubsection}{\numberline {1.2.5}Gravity}{3}{}\protected@file@percent }
\@writefile{toc}{\contentsline {subsubsection}{\numberline {1.2.6}Thrust}{3}{}\protected@file@percent }
\@writefile{toc}{\contentsline {subsubsection}{\numberline {1.2.7}Angle of Pitch vs. Angle of Drag}{3}{}\protected@file@percent }
\@writefile{lof}{\contentsline {figure}{\numberline {1}{\ignorespaces Difference between $\theta _{pitch}$ and $\theta _{drag}$\relax }}{4}{}\protected@file@percent }
\providecommand*\caption@xref[2]{\@setref\relax\@undefined{#1}}
\newlabel{fig:airplane}{{1}{4}}
\newlabel{fig:airplane@cref}{{[figure][1][]1}{[1][3][]4}}
\@writefile{toc}{\contentsline {section}{\numberline {2}Deriving the Differential Equations}{4}{}\protected@file@percent }
\@writefile{toc}{\contentsline {section}{\numberline {3}Solution}{5}{}\protected@file@percent }
\@writefile{toc}{\contentsline {section}{\numberline {4}Stability}{5}{}\protected@file@percent }
\@writefile{lof}{\contentsline {subfigure}{\numberline{(a)}{\ignorespaces {\centering Continuous Loop Up}}}{6}{}\protected@file@percent }
\@writefile{lof}{\contentsline {subfigure}{\numberline{(b)}{\ignorespaces {\centering Curve Up}}}{6}{}\protected@file@percent }
\@writefile{lof}{\contentsline {subfigure}{\numberline{(c)}{\ignorespaces {\centering Loop Down}}}{6}{}\protected@file@percent }
\@writefile{lof}{\contentsline {subfigure}{\numberline{(d)}{\ignorespaces {\centering Loop Up}}}{6}{}\protected@file@percent }
\@writefile{lof}{\contentsline {subfigure}{\numberline{(e)}{\ignorespaces {\centering Peak Down}}}{7}{}\protected@file@percent }
\@writefile{lof}{\contentsline {subfigure}{\numberline{(f)}{\ignorespaces {\centering Stable Thrust}}}{7}{}\protected@file@percent }
\@writefile{toc}{\contentsline {section}{\numberline {5}Conclusion}{7}{}\protected@file@percent }
\gdef \@abspage@last{7}
