\relax 
\@writefile{toc}{\contentsline {section}{\numberline {1}Introduction}{1}\protected@file@percent }
\@writefile{toc}{\contentsline {subsection}{\numberline {1.1}Phenomenon}{1}\protected@file@percent }
\@writefile{toc}{\contentsline {subsection}{\numberline {1.2}Equations}{1}\protected@file@percent }
\@writefile{toc}{\contentsline {subsubsection}{\numberline {1.2.1}Force of Parasitic Drag}{1}\protected@file@percent }
\@writefile{toc}{\contentsline {subsubsection}{\numberline {1.2.2}Force of Induced Drag}{2}\protected@file@percent }
\@writefile{toc}{\contentsline {subsubsection}{\numberline {1.2.3}Force of Primary Lift}{2}\protected@file@percent }
\@writefile{toc}{\contentsline {subsubsection}{\numberline {1.2.4}Force of Secondary Lift}{2}\protected@file@percent }
\@writefile{toc}{\contentsline {subsubsection}{\numberline {1.2.5}Gravity}{2}\protected@file@percent }
\@writefile{toc}{\contentsline {subsubsection}{\numberline {1.2.6}Thrust}{2}\protected@file@percent }
\@writefile{toc}{\contentsline {section}{\numberline {2}Deriving the Differential Equations}{3}\protected@file@percent }
\@writefile{toc}{\contentsline {section}{\numberline {3}Solution}{3}\protected@file@percent }
\@writefile{toc}{\contentsline {section}{\numberline {4}Stability}{4}\protected@file@percent }
\@writefile{toc}{\contentsline {section}{\numberline {5}Conclusion}{4}\protected@file@percent }
