PWD c:/Users/torgo/Desktop/acme_group/vol4_semester2/Latex
INPUT c:/texlive/2019/texmf.cnf
INPUT c:/texlive/2019/texmf-dist/web2c/texmf.cnf
INPUT c:/texlive/2019/texmf-var/web2c/pdftex/pdflatex.fmt
INPUT c:/Users/torgo/Desktop/acme_group/vol4_semester2/Latex/vol4_semester2_project.tex
OUTPUT c:/Users/torgo/Desktop/acme_group/vol4_semester2/Latex/vol4_semester2_project.log
INPUT c:/texlive/2019/texmf-dist/tex/latex/base/article.cls
INPUT c:/texlive/2019/texmf-dist/tex/latex/base/article.cls
INPUT c:/texlive/2019/texmf-dist/tex/latex/base/size11.clo
INPUT c:/texlive/2019/texmf-dist/tex/latex/base/size11.clo
INPUT c:/texlive/2019/texmf-dist/fonts/map/fontname/texfonts.map
INPUT c:/texlive/2019/texmf-dist/fonts/tfm/public/cm/cmr10.tfm
INPUT c:/texlive/2019/texmf-dist/tex/latex/base/inputenc.sty
INPUT c:/texlive/2019/texmf-dist/tex/latex/base/inputenc.sty
INPUT c:/texlive/2019/texmf-dist/tex/latex/listliketab/listliketab.sty
INPUT c:/texlive/2019/texmf-dist/tex/latex/listliketab/listliketab.sty
INPUT c:/texlive/2019/texmf-dist/tex/latex/tools/calc.sty
INPUT c:/texlive/2019/texmf-dist/tex/latex/tools/calc.sty
INPUT c:/texlive/2019/texmf-dist/tex/latex/tools/array.sty
INPUT c:/texlive/2019/texmf-dist/tex/latex/tools/array.sty
INPUT c:/texlive/2019/texmf-dist/tex/latex/graphics/graphicx.sty
INPUT c:/texlive/2019/texmf-dist/tex/latex/graphics/graphicx.sty
INPUT c:/texlive/2019/texmf-dist/tex/latex/graphics/keyval.sty
INPUT c:/texlive/2019/texmf-dist/tex/latex/graphics/keyval.sty
INPUT c:/texlive/2019/texmf-dist/tex/latex/graphics/graphics.sty
INPUT c:/texlive/2019/texmf-dist/tex/latex/graphics/graphics.sty
INPUT c:/texlive/2019/texmf-dist/tex/latex/graphics/trig.sty
INPUT c:/texlive/2019/texmf-dist/tex/latex/graphics/trig.sty
INPUT c:/texlive/2019/texmf-dist/tex/latex/graphics-cfg/graphics.cfg
INPUT c:/texlive/2019/texmf-dist/tex/latex/graphics-cfg/graphics.cfg
INPUT c:/texlive/2019/texmf-dist/tex/latex/graphics-def/pdftex.def
INPUT c:/texlive/2019/texmf-dist/tex/latex/graphics-def/pdftex.def
INPUT c:/texlive/2019/texmf-dist/tex/latex/xcolor/xcolor.sty
INPUT c:/texlive/2019/texmf-dist/tex/latex/xcolor/xcolor.sty
INPUT c:/texlive/2019/texmf-dist/tex/latex/graphics-cfg/color.cfg
INPUT c:/texlive/2019/texmf-dist/tex/latex/graphics-cfg/color.cfg
INPUT c:/texlive/2019/texmf-dist/tex/latex/amsmath/amsmath.sty
INPUT c:/texlive/2019/texmf-dist/tex/latex/amsmath/amsmath.sty
INPUT c:/texlive/2019/texmf-dist/tex/latex/amsmath/amstext.sty
INPUT c:/texlive/2019/texmf-dist/tex/latex/amsmath/amstext.sty
INPUT c:/texlive/2019/texmf-dist/tex/latex/amsmath/amsgen.sty
INPUT c:/texlive/2019/texmf-dist/tex/latex/amsmath/amsgen.sty
INPUT c:/texlive/2019/texmf-dist/tex/latex/amsmath/amsbsy.sty
INPUT c:/texlive/2019/texmf-dist/tex/latex/amsmath/amsbsy.sty
INPUT c:/texlive/2019/texmf-dist/tex/latex/amsmath/amsopn.sty
INPUT c:/texlive/2019/texmf-dist/tex/latex/amsmath/amsopn.sty
INPUT c:/texlive/2019/texmf-dist/tex/latex/cleveref/cleveref.sty
INPUT c:/texlive/2019/texmf-dist/tex/latex/cleveref/cleveref.sty
INPUT c:/texlive/2019/texmf-dist/tex/latex/epigraph/epigraph.sty
INPUT c:/texlive/2019/texmf-dist/tex/latex/epigraph/epigraph.sty
INPUT c:/texlive/2019/texmf-dist/tex/latex/float/float.sty
INPUT c:/texlive/2019/texmf-dist/tex/latex/float/float.sty
INPUT c:/texlive/2019/texmf-dist/tex/latex/graphics/lscape.sty
INPUT c:/texlive/2019/texmf-dist/tex/latex/graphics/lscape.sty
INPUT c:/texlive/2019/texmf-dist/tex/latex/subfig/subfig.sty
INPUT c:/texlive/2019/texmf-dist/tex/latex/subfig/subfig.sty
INPUT c:/texlive/2019/texmf-dist/tex/latex/caption/caption.sty
INPUT c:/texlive/2019/texmf-dist/tex/latex/caption/caption.sty
INPUT c:/texlive/2019/texmf-dist/tex/latex/caption/caption3.sty
INPUT c:/texlive/2019/texmf-dist/tex/latex/caption/caption3.sty
INPUT c:/texlive/2019/texmf-dist/tex/latex/soul/soul.sty
INPUT c:/texlive/2019/texmf-dist/tex/latex/soul/soul.sty
INPUT c:/texlive/2019/texmf-dist/fonts/tfm/jknappen/ec/ectt1000.tfm
INPUT c:/Users/torgo/Desktop/acme_group/vol4_semester2/Latex/vol4_semester2_project.aux
INPUT c:/Users/torgo/Desktop/acme_group/vol4_semester2/Latex/vol4_semester2_project.aux
OUTPUT c:/Users/torgo/Desktop/acme_group/vol4_semester2/Latex/vol4_semester2_project.aux
INPUT c:/texlive/2019/texmf-dist/tex/context/base/mkii/supp-pdf.mkii
INPUT c:/texlive/2019/texmf-dist/tex/context/base/mkii/supp-pdf.mkii
INPUT c:/texlive/2019/texmf-dist/tex/latex/oberdiek/epstopdf-base.sty
INPUT c:/texlive/2019/texmf-dist/tex/latex/oberdiek/epstopdf-base.sty
INPUT c:/texlive/2019/texmf-dist/tex/generic/oberdiek/infwarerr.sty
INPUT c:/texlive/2019/texmf-dist/tex/generic/oberdiek/infwarerr.sty
INPUT c:/texlive/2019/texmf-dist/tex/latex/oberdiek/grfext.sty
INPUT c:/texlive/2019/texmf-dist/tex/latex/oberdiek/grfext.sty
INPUT c:/texlive/2019/texmf-dist/tex/generic/oberdiek/kvdefinekeys.sty
INPUT c:/texlive/2019/texmf-dist/tex/generic/oberdiek/kvdefinekeys.sty
INPUT c:/texlive/2019/texmf-dist/tex/generic/oberdiek/ltxcmds.sty
INPUT c:/texlive/2019/texmf-dist/tex/generic/oberdiek/ltxcmds.sty
INPUT c:/texlive/2019/texmf-dist/tex/latex/oberdiek/kvoptions.sty
INPUT c:/texlive/2019/texmf-dist/tex/latex/oberdiek/kvoptions.sty
INPUT c:/texlive/2019/texmf-dist/tex/generic/oberdiek/kvsetkeys.sty
INPUT c:/texlive/2019/texmf-dist/tex/generic/oberdiek/kvsetkeys.sty
INPUT c:/texlive/2019/texmf-dist/tex/generic/oberdiek/etexcmds.sty
INPUT c:/texlive/2019/texmf-dist/tex/generic/oberdiek/etexcmds.sty
INPUT c:/texlive/2019/texmf-dist/tex/generic/oberdiek/ifluatex.sty
INPUT c:/texlive/2019/texmf-dist/tex/generic/oberdiek/ifluatex.sty
INPUT c:/texlive/2019/texmf-dist/tex/generic/oberdiek/pdftexcmds.sty
INPUT c:/texlive/2019/texmf-dist/tex/generic/oberdiek/pdftexcmds.sty
INPUT c:/texlive/2019/texmf-dist/tex/generic/oberdiek/ifpdf.sty
INPUT c:/texlive/2019/texmf-dist/tex/generic/oberdiek/ifpdf.sty
INPUT c:/texlive/2019/texmf-dist/tex/latex/latexconfig/epstopdf-sys.cfg
INPUT c:/texlive/2019/texmf-dist/tex/latex/latexconfig/epstopdf-sys.cfg
INPUT c:/texlive/2019/texmf-dist/fonts/tfm/public/cm/cmr17.tfm
INPUT c:/texlive/2019/texmf-dist/fonts/tfm/public/cm/cmr12.tfm
INPUT c:/texlive/2019/texmf-dist/fonts/tfm/public/cm/cmr8.tfm
INPUT c:/texlive/2019/texmf-dist/fonts/tfm/public/cm/cmr6.tfm
INPUT c:/texlive/2019/texmf-dist/fonts/tfm/public/cm/cmmi12.tfm
INPUT c:/texlive/2019/texmf-dist/fonts/tfm/public/cm/cmmi8.tfm
INPUT c:/texlive/2019/texmf-dist/fonts/tfm/public/cm/cmmi6.tfm
INPUT c:/texlive/2019/texmf-dist/fonts/tfm/public/cm/cmsy10.tfm
INPUT c:/texlive/2019/texmf-dist/fonts/tfm/public/cm/cmsy8.tfm
INPUT c:/texlive/2019/texmf-dist/fonts/tfm/public/cm/cmsy6.tfm
INPUT c:/texlive/2019/texmf-dist/fonts/tfm/public/cm/cmex10.tfm
INPUT c:/texlive/2019/texmf-dist/fonts/tfm/public/amsfonts/cmextra/cmex8.tfm
INPUT c:/texlive/2019/texmf-dist/fonts/tfm/public/amsfonts/cmextra/cmex7.tfm
INPUT c:/texlive/2019/texmf-dist/fonts/tfm/public/cm/cmr12.tfm
INPUT c:/texlive/2019/texmf-dist/fonts/tfm/public/cm/cmbx12.tfm
INPUT c:/texlive/2019/texmf-dist/fonts/tfm/public/cm/cmmi10.tfm
INPUT c:/texlive/2019/texmf-dist/fonts/tfm/public/cm/cmsy10.tfm
INPUT c:/texlive/2019/texmf-dist/fonts/tfm/public/cm/cmex10.tfm
OUTPUT c:/Users/torgo/Desktop/acme_group/vol4_semester2/Latex/vol4_semester2_project.pdf
INPUT c:/texlive/2019/texmf-var/fonts/map/pdftex/updmap/pdftex.map
INPUT c:/Users/torgo/Desktop/acme_group/vol4_semester2/Latex/vol4_semester2_project.aux
INPUT c:/texlive/2019/texmf-dist/fonts/type1/public/amsfonts/cm/cmbx12.pfb
INPUT c:/texlive/2019/texmf-dist/fonts/type1/public/amsfonts/cm/cmex10.pfb
INPUT c:/texlive/2019/texmf-dist/fonts/type1/public/amsfonts/cm/cmmi10.pfb
INPUT c:/texlive/2019/texmf-dist/fonts/type1/public/amsfonts/cm/cmmi6.pfb
INPUT c:/texlive/2019/texmf-dist/fonts/type1/public/amsfonts/cm/cmmi8.pfb
INPUT c:/texlive/2019/texmf-dist/fonts/type1/public/amsfonts/cm/cmr10.pfb
INPUT c:/texlive/2019/texmf-dist/fonts/type1/public/amsfonts/cm/cmr12.pfb
INPUT c:/texlive/2019/texmf-dist/fonts/type1/public/amsfonts/cm/cmr17.pfb
INPUT c:/texlive/2019/texmf-dist/fonts/type1/public/amsfonts/cm/cmr6.pfb
INPUT c:/texlive/2019/texmf-dist/fonts/type1/public/amsfonts/cm/cmr8.pfb
INPUT c:/texlive/2019/texmf-dist/fonts/type1/public/amsfonts/cm/cmsy10.pfb
INPUT c:/texlive/2019/texmf-dist/fonts/type1/public/amsfonts/cm/cmsy6.pfb
INPUT c:/texlive/2019/texmf-dist/fonts/type1/public/amsfonts/cm/cmsy8.pfb
